{
    "$schema": "https://docs.renovatebot.com/renovate-schema.json",
    "description": ["Base preset for use with KoiReader's repos"],
    "enabled": true,
    "gitLabAutomerge": true,
    "prCreation": "status-success",
    "extends": [
        "config:base",
        ":pinAllExceptPeerDependencies",
        ":separateMultipleMajorReleases",
        ":combinePatchMinorReleases",
        ":unpublishSafe",
        ":automergeLinters",
        ":automergeTesters",
        ":enableVulnerabilityAlerts",
        ":semanticCommits",
        ":dependencyDashboard",
        "group:allNonMajor",
        "group:allApollographql",
        "group:fortawesome",
        "group:polymer",
        "helpers:disableTypesNodeMajor",
        "packages:apollographql",
        "packages:linters"
    ],
    "packageRules": [
        {
            "datasources": ["npm"],
            "stabilityDays": 7
        },
        {
            "datasources": ["npm"],
            "packageNames": ["aws-sdk"],
            "schedule": ["after 12pm on sunday"]
        }
    ]
}
